test_run_dir/test_sa_rob/SA_ROB_Wrapper.vcd
$date
2023-12-15T07:42+0000
$end
$version
0.2
$end
$comment

$end
$timescale 1ns  $end
$scope module SA_ROB_Wrapper $end
 $var wire 1 " ldBuff $end
 $var wire 64 # io_out_bits $end
 $var wire 5 I io_deqptr_1 $end
 $var wire 5 J io_deqptr_0 $end
 $var wire 5 K io_deqptr_3 $end
 $var wire 5 L io_deqptr_2 $end
 $var wire 5 M io_deqptr_5 $end
 $var wire 5 N io_deqptr_4 $end
 $var wire 1 O io_out_valid $end
 $var wire 1 _ clock $end
 $var wire 1 ` rob $end
 $var wire 3 h io_ldin_fuOptype_1 $end
 $var wire 3 i io_ldin_fuOptype_0 $end
 $var wire 64 z io_ldin_data_0 $end
 $var wire 64 { io_ldin_data_1 $end
 $var wire 1 "4 reset $end
 $var wire 5 "< io_ldin_robIdx_1 $end
 $var wire 5 "= io_ldin_robIdx_0 $end
 $var wire 1 "A io_out_ready $end
 $var wire 1 "C io_ldin_valid_1 $end
 $var wire 1 "D io_ldin_valid_0 $end
  $scope module rob $end
   $var wire 2 ! deq_lo $end
   $var wire 64 + io_data_1 $end
   $var wire 64 , io_data_2 $end
   $var wire 64 - io_data_3 $end
   $var wire 64 / io_data_0 $end
   $var wire 6 2 minMask $end
   $var wire 1 P deq $end
   $var wire 6 V minMask_2_3 $end
   $var wire 2 Z io_out_valid_lo $end
   $var wire 1 \ io_out_ready $end
   $var wire 6 a minMask_0_1 $end
   $var wire 1 c reset $end
   $var wire 2 e io_out_valid_hi $end
   $var wire 6 j io_MatchVec_1 $end
   $var wire 6 k io_MatchVec_0 $end
   $var wire 6 l io_MatchVec_3 $end
   $var wire 6 m io_MatchVec_2 $end
   $var wire 2 p minIndex $end
   $var wire 64 q deqData $end
   $var wire 64 "% io_out_bits $end
   $var wire 64 "- mem_3 $end
   $var wire 64 "0 mem_0 $end
   $var wire 64 "2 mem_2 $end
   $var wire 64 "3 mem_1 $end
   $var wire 6 "9 matchVecReg_0 $end
   $var wire 6 ": matchVecReg_1 $end
   $var wire 6 "; matchVecReg_2 $end
   $var wire 6 "@ matchVecReg_3 $end
   $var wire 2 "P deq_hi $end
   $var wire 1 "V clock $end
   $var wire 6 "\ matchVecMask_3 $end
   $var wire 6 "] matchVecMask_2 $end
   $var wire 6 "^ matchVecMask_1 $end
   $var wire 6 "_ matchVecMask_0 $end
   $var wire 1 "` io_out_valid $end
  $upscope $end
  $scope module ldBuff $end
   $var wire 5 $ robIdxReg_3 $end
   $var wire 5 % robIdxReg_2 $end
   $var wire 5 & robIdxReg_1 $end
   $var wire 5 ' robIdxReg_0 $end
   $var wire 1 ( io_ldin_valid_1 $end
   $var wire 1 ) io_ldin_valid_0 $end
   $var wire 2 * validReg_2_hi_hi_1 $end
   $var wire 1 . clock $end
   $var wire 6 0 io_bufout_MatchVec_0 $end
   $var wire 6 1 io_bufout_MatchVec_1 $end
   $var wire 2 3 matchVecUInt_hi_hi_2 $end
   $var wire 2 4 matchVecUInt_hi_hi_1 $end
   $var wire 6 5 io_bufout_MatchVec_2 $end
   $var wire 6 6 io_bufout_MatchVec_3 $end
   $var wire 1 7 MatchVec_2_2 $end
   $var wire 1 8 MatchVec_2_3 $end
   $var wire 1 9 MatchVec_2_4 $end
   $var wire 1 : MatchVec_2_5 $end
   $var wire 1 ; validReg_0 $end
   $var wire 1 < validReg_1 $end
   $var wire 1 = validReg_2 $end
   $var wire 1 > validReg_3 $end
   $var wire 3 ? validReg_3_lo $end
   $var wire 1 @ MatchVec_2_0 $end
   $var wire 1 A MatchVec_2_1 $end
   $var wire 2 B matchVecUInt_hi_hi_3 $end
   $var wire 1 C MatchVec_3_1 $end
   $var wire 1 D MatchVec_3_2 $end
   $var wire 1 E MatchVec_3_3 $end
   $var wire 1 F MatchVec_3_4 $end
   $var wire 1 G MatchVec_3_5 $end
   $var wire 1 H MatchVec_3_0 $end
   $var wire 2 Q validReg_2_lo_hi_1 $end
   $var wire 2 R validReg_3_lo_hi $end
   $var wire 3 S matchVecUInt_lo $end
   $var wire 2 T validReg_3_hi_hi $end
   $var wire 3 U validReg_3_hi $end
   $var wire 5 W io_ldin_robIdx_1 $end
   $var wire 5 X io_ldin_robIdx_0 $end
   $var wire 3 Y validReg_2_lo $end
   $var wire 1 [ reset $end
   $var wire 2 ] validReg_2_hi_hi $end
   $var wire 2 ^ matchVecUInt_hi_hi $end
   $var wire 2 b validReg_3_lo_hi_1 $end
   $var wire 3 d validReg_2_hi $end
   $var wire 2 f validReg_2_lo_hi $end
   $var wire 2 g matchVecUInt_lo_hi $end
   $var wire 3 n validReg_2_hi_1 $end
   $var wire 3 o validReg_2_lo_1 $end
   $var wire 5 r deqptrReg_5 $end
   $var wire 5 s deqptrReg_4 $end
   $var wire 5 t deqptrReg_1 $end
   $var wire 5 u deqptrReg_0 $end
   $var wire 5 v deqptrReg_3 $end
   $var wire 5 w deqptrReg_2 $end
   $var wire 3 x io_ldin_fuOptype_0 $end
   $var wire 3 y io_ldin_fuOptype_1 $end
   $var wire 64 | dataReg_1 $end
   $var wire 64 } dataReg_0 $end
   $var wire 64 ~ dataReg_3 $end
   $var wire 64 "! dataReg_2 $end
   $var wire 2 "" matchVecUInt_lo_hi_2 $end
   $var wire 2 "# matchVecUInt_lo_hi_1 $end
   $var wire 2 "$ matchVecUInt_lo_hi_3 $end
   $var wire 3 "& matchVecUInt_hi $end
   $var wire 5 "' io_deqptr_0 $end
   $var wire 5 "( io_deqptr_2 $end
   $var wire 5 ") io_deqptr_1 $end
   $var wire 5 "* io_deqptr_4 $end
   $var wire 5 "+ io_deqptr_3 $end
   $var wire 5 ", io_deqptr_5 $end
   $var wire 2 ". validReg_3_hi_hi_1 $end
   $var wire 1 "/ MatchVec_0_4 $end
   $var wire 1 "1 MatchVec_0_5 $end
   $var wire 1 "5 MatchVec_0_0 $end
   $var wire 1 "6 MatchVec_0_1 $end
   $var wire 1 "7 MatchVec_0_2 $end
   $var wire 1 "8 MatchVec_0_3 $end
   $var wire 3 "> validReg_3_hi_1 $end
   $var wire 3 "? validReg_3_lo_1 $end
   $var wire 64 "B io_ldin_data_0 $end
   $var wire 64 "E io_ldin_data_1 $end
   $var wire 1 "F MatchVec_1_3 $end
   $var wire 1 "G MatchVec_1_4 $end
   $var wire 1 "H MatchVec_1_5 $end
   $var wire 64 "I io_bufout_data_3 $end
   $var wire 64 "J io_bufout_data_1 $end
   $var wire 64 "K io_bufout_data_2 $end
   $var wire 64 "L io_bufout_data_0 $end
   $var wire 1 "M MatchVec_1_0 $end
   $var wire 1 "N MatchVec_1_1 $end
   $var wire 1 "O MatchVec_1_2 $end
   $var wire 6 "Q matchVecUInt_1 $end
   $var wire 6 "R matchVecUInt_2 $end
   $var wire 6 "S matchVecUInt_0 $end
   $var wire 3 "T matchVecUInt_hi_3 $end
   $var wire 3 "U matchVecUInt_lo_3 $end
   $var wire 3 "W matchVecUInt_lo_1 $end
   $var wire 3 "X matchVecUInt_lo_2 $end
   $var wire 3 "Y matchVecUInt_hi_1 $end
   $var wire 3 "Z matchVecUInt_hi_2 $end
   $var wire 6 "[ matchVecUInt_3 $end
  $upscope $end
$upscope $end
$enddefinitions $end
$dumpvars
b0000000000000000000000000000000000000000000000000000000000000000 "-
b0000000000000000000000000000000000000000000000000000000000000000 "2
b0000000000000000000000000000000000000000000000000000000000000000 "3
b0000000000000000000000000000000000000000000000000000000000000000 "0
07
08
09
0:
0;
b0000000000000000000000000000000000000000000000000000000000000000 "%
0<
0=
b00 4
0>
b00 3
0@
0A
0C
0D
b0000000000000000000000000000000000000000000000000000000000000000 "B
0E
0F
0G
b00 *
0H
b00 !
0O
0P
b0000000000000000000000000000000000000000000000000000000000000000 "L
0[
b0000000000000000000000000000000000000000000000000000000000000000 "E
0\
b0000000000000000000000000000000000000000000000000000000000000000 "J
b0000000000000000000000000000000000000000000000000000000000000000 "K
0_
b0000000000000000000000000000000000000000000000000000000000000000 "I
0`
0c
b0000000000000000000000000000000000000000000000000000000000000000 ~
b000000 6
b0000000000000000000000000000000000000000000000000000000000000000 |
b0000000000000000000000000000000000000000000000000000000000000000 }
b0000000000000000000000000000000000000000000000000000000000000000 z
b0000000000000000000000000000000000000000000000000000000000000000 {
b0000000000000000000000000000000000000000000000000000000000000000 q
b000000 1
b000000 0
b000000 2
b000000 5
b0000000000000000000000000000000000000000000000000000000000000000 "!
0"/
0"1
b000000 "\
b000 "W
b000000 "]
b000 "T
0"4
b000000 "^
b000 "U
0"5
b000000 "_
0"6
0"7
0"8
b0000000000000000000000000000000000000000000000000000000000000000 /
b000 "Z
b000 "X
b000 "Y
0"A
b000000 "[
0"C
b000 y
0"D
b00000 %
b000 x
b00000 $
0"F
b00000 '
b0000000000000000000000000000000000000000000000000000000000000000 ,
b00000 "=
b000000 k
0"G
b00000 &
b000000 "Q
b0000000000000000000000000000000000000000000000000000000000000000 -
b00000 "<
b000000 j
0"H
b000000 "R
b000000 m
b000000 "S
b0000000000000000000000000000000000000000000000000000000000000000 +
b000000 l
b00 "P
b000000 a
0"M
0"N
0"O
b0000000000000000000000000000000000000000000000000000000000000000 #
b00000 ")
b00000 "(
b000000 V
b000 i
b00000 "+
b000 h
b00000 "*
0"V
b000000 "@
b00000 ",
b000 d
b000 o
b000 n
b000000 "9
0"`
b000000 ":
b00000 "'
b000000 ";
b000 Y
b000 S
b00 "$
b000 U
b00000 I
b00000 K
b00000 J
b00000 M
b00000 L
b00000 N
b00 ".
b00000 W
b00000 X
b00 p
b00 "#
b00 ""
b000 "&
b00 g
b00 f
b000 ?
b00 ^
b00 e
b00 b
b00000 s
b00000 r
b00000 u
b00000 t
b00000 w
b00 ]
b00000 v
b00 Z
b000 ">
b00 Q
b000 "?
b00 T
b00 R
0"
0(
0)
0.
b00 B
$end
#0
b11 p
1"4
1c
1[
#1
b111111 a
b111111 2
1"V
b111111 V
b111111 "\
b111111 "]
b111111 "^
b111111 "_
1.
1_
#6
b00011 "'
b00010 "(
b00100 ")
b00101 "*
b00100 I
b00001 "+
b00011 J
b00110 ",
b00001 K
b00010 L
b00110 M
b00101 N
0"4
b00010 W
b00001 X
b00010 "<
0[
b00001 "=
1\
0_
1"A
b0000000000000000000000000000000000000000000000000000000000000001 "B
1"C
1"D
0c
b0000000000000000000000000000000000000000000000000000000000000010 "E
1(
b111 h
1)
b111 i
0.
0"V
b111 x
b111 y
b0000000000000000000000000000000000000000000000000000000000000001 z
b0000000000000000000000000000000000000000000000000000000000000010 {
#11
b10 "#
b001 "&
b10 R
1"8
1_
b001 d
b00010 &
b00001 '
b0000000000000000000000000000000000000000000000000000000000000010 "J
b000100 j
b0000000000000000000000000000000000000000000000000000000000000001 "L
b0000000000000000000000000000000000000000000000000000000000000010 +
b001000 k
1"O
1.
b0000000000000000000000000000000000000000000000000000000000000001 /
b000100 "Q
b001000 0
b000100 1
b001000 "S
b00110 r
b00101 s
b00100 t
1"V
b00011 u
b100 "W
b00001 v
b00010 w
1;
1<
b0000000000000000000000000000000000000000000000000000000000000010 |
b0000000000000000000000000000000000000000000000000000000000000001 }
b100 ?
#16
b0000000000000000000000000000000000000000000000000000000000000011 "B
b0000000000000000000000000000000000000000000000000000000000000100 "E
b00001 ")
b00000 "*
b00001 I
b00000 "+
b00000 ",
b00000 K
b00000 M
0.
b00000 N
0"V
b00100 W
b00011 X
b0000000000000000000000000000000000000000000000000000000000000011 z
b00100 "<
b0000000000000000000000000000000000000000000000000000000000000100 {
b00011 "=
0_
#21
b11 !
b0000000000000000000000000000000000000000000000000000000000000010 #
b00010 $
b00001 %
b00100 &
b00011 '
b0000000000000000000000000000000000000000000000000000000000000100 +
b0000000000000000000000000000000000000000000000000000000000000001 ,
b0000000000000000000000000000000000000000000000000000000000000010 -
1.
b0000000000000000000000000000000000000000000000000000000000000011 /
b000001 0
b000000 1
b000100 2
b000 ?
b0000000000000000000000000000000000000000000000000000000000000001 "!
b00 "#
b0000000000000000000000000000000000000000000000000000000000000010 "%
b000 "&
b0000000000000000000000000000000000000000000000000000000000000001 "0
1O
1P
b0000000000000000000000000000000000000000000000000000000000000010 "3
b00 R
b001 S
1"5
0"8
b001000 "9
b000100 ":
b001 Y
b11 Z
1_
b000100 a
b000 d
b0000000000000000000000000000000000000000000000000000000000000010 "I
b0000000000000000000000000000000000000000000000000000000000000100 "J
b0000000000000000000000000000000000000000000000000000000000000001 "K
b000000 j
b0000000000000000000000000000000000000000000000000000000000000011 "L
b000001 k
0"O
b000000 "Q
b01 p
b0000000000000000000000000000000000000000000000000000000000000010 q
b000001 "S
b00000 r
b00000 s
b00001 t
1"V
b000 "W
b00000 v
b0000000000000000000000000000000000000000000000000000000000000100 |
b000100 "^
b0000000000000000000000000000000000000000000000000000000000000011 }
b001000 "_
b0000000000000000000000000000000000000000000000000000000000000010 ~
1"`
#26
b0000000000000000000000000000000000000000000000000000000000000000 "B
0"C
b0000000000000000000000000000000000000000000000000000000000000000 "E
b00000 "'
b00000 "(
b00000 ")
0(
b000 h
b00000 I
b000 i
b00000 J
b00000 L
0.
0"V
b00000 W
b00000 X
b000 x
b000 y
b0000000000000000000000000000000000000000000000000000000000000000 z
b00000 "<
b0000000000000000000000000000000000000000000000000000000000000000 {
b00000 "=
0_
#31
b0000000000000000000000000000000000000000000000000000000000000001 "%
b0000000000000000000000000000000000000000000000000000000000000010 "-
b0000000000000000000000000000000000000000000000000000000000000001 "2
b0000000000000000000000000000000000000000000000000000000000000100 "3
b000 S
0"5
b000000 ":
b000 Y
b01 Z
1_
b01 !
b001000 a
b0000000000000000000000000000000000000000000000000000000000000001 #
b00100 $
b00011 %
b0000000000000000000000000000000000000000000000000000000000000100 "I
b0000000000000000000000000000000000000000000000000000000000000011 "K
b000000 k
b0000000000000000000000000000000000000000000000000000000000000011 ,
b0000000000000000000000000000000000000000000000000000000000000100 -
1.
b000000 0
b00 p
b0000000000000000000000000000000000000000000000000000000000000001 q
b000000 "S
b001000 2
b00000 t
1"V
b00000 u
b00000 w
0;
0<
b111111 "^
1>
b0000000000000000000000000000000000000000000000000000000000000100 ~
b0000000000000000000000000000000000000000000000000000000000000011 "!
#36
0"D
b0000000000000000000000000000000000000000000000000000000000000101 "E
b00100 "'
b00011 "(
b00001 ")
0)
b00001 I
b00100 J
b00011 L
0.
0"V
b00110 W
b00101 X
b00110 "<
b0000000000000000000000000000000000000000000000000000000000000101 {
b00101 "=
0_
#41
b0000000000000000000000000000000000000000000000000000000000000000 "%
1H
b0000000000000000000000000000000000000000000000000000000000000100 "-
b0000000000000000000000000000000000000000000000000000000000000011 "0
0O
0P
b0000000000000000000000000000000000000000000000000000000000000011 "2
b000000 "9
b00 Z
b001 "?
1_
b00 !
b111111 a
b0000000000000000000000000000000000000000000000000000000000000000 #
b000001 l
1.
b11 p
b0000000000000000000000000000000000000000000000000000000000000000 q
b111111 2
b001 "U
b00001 t
1"V
b00100 u
b000001 6
b00011 w
b000001 "[
b111111 "_
0"`
#46
1"D
b0000000000000000000000000000000000000000000000000000000000000000 "E
b00000 "'
b00000 "(
b00000 ")
1)
b00000 I
b00000 J
b00000 L
0.
0"V
b00000 W
b00000 X
b00000 "<
b0000000000000000000000000000000000000000000000000000000000000000 {
b00000 "=
0_
#51
b0000000000000000000000000000000000000000000000000000000000000100 "%
0H
1O
1P
b000001 V
b000 "?
b000001 "@
1_
b0000000000000000000000000000000000000000000000000000000000000100 #
b10 e
b000000 l
1.
b10 "P
b0000000000000000000000000000000000000000000000000000000000000100 q
b000001 2
b000 "U
b00000 t
1"V
b00000 u
b000000 6
b00000 w
b000000 "[
b000001 "\
0>
1"`
#56
0"V
0.
0_
#61
b0000000000000000000000000000000000000000000000000000000000000000 #
b0000000000000000000000000000000000000000000000000000000000000000 "%
b00 e
1.
b00 "P
0O
0P
b0000000000000000000000000000000000000000000000000000000000000000 q
b111111 2
1"V
b111111 V
b111111 "\
b000000 "@
0"`
1_
#66
0"V
0.
0_
#71
1"V
1.
1_
#76
0"V
0.
0_
#81
1"V
1.
1_
#86
0"V
0.
0_
#91
1"V
1.
1_
#96
0"V
0.
0_
#101
1"V
1.
1_
#106
0"V
0.
0_
#111
1"V
1.
1_
#116
0"V
0.
0_
#121
1"V
1.
1_
#126
0"V
0.
0_
#131
1"V
1.
1_
#136
0"V
0.
0_
#141
1"V
1.
1_
#146
0"V
0.
0_
#151
1"V
1.
1_
#156
0"V
0.
0_
#161
1"V
1.
1_
#166
0"V
0.
0_
#171
1"V
1.
1_
#176
0"V
0.
0_
#181
1"V
1.
1_
#186
0"V
0.
0_
#191
1"V
1.
1_
#196
0"V
0.
0_
#201
1"V
1.
1_
#206
0"V
0.
0_
#211
1"V
1.
1_
#216
0"V
0.
0_
#221
1"V
1.
1_
#226
0"D
0_
0"A
