test_run_dir/test_OutputBuffer/OutputBuffer.vcd
$date
2023-11-13T08:38+0000
$end
$version
0.2
$end
$comment

$end
$timescale 1ns  $end
$scope module OutputBuffer $end
 $var wire 2 & state $end
 $var wire 1 ) data_queue_3 $end
 $var wire 1 * data_queue_1 $end
 $var wire 1 + data_queue_2 $end
 $var wire 1 , data_queue_0 $end
 $var wire 1 / io_ctrl_data_in $end
 $var wire 3 7 count_out_cycles $end
 $var wire 1 = io_data_out_done $end
 $var wire 1 K reset $end
 $var wire 1 N data_out_done $end
 $var wire 3 O count_in_cycles $end
 $var wire 1 U io_data_in_done $end
 $var wire 1 [ io_ctrl_data_out $end
 $var wire 8 ` io_data_out_2 $end
 $var wire 8 a io_data_out_1 $end
 $var wire 8 c io_data_out_3 $end
 $var wire 8 d io_data_out_0 $end
 $var wire 1 e data_in_done $end
 $var wire 8 i io_data_in_1 $end
 $var wire 1 j clock $end
 $var wire 8 k io_data_in_0 $end
 $var wire 8 l io_data_in_3 $end
 $var wire 8 m io_data_in_2 $end
 $var wire 3 s deq_count_2 $end
 $var wire 3 t deq_count_1 $end
 $var wire 3 u deq_count_0 $end
 $var wire 3 v deq_count_3 $end
  $scope module data_queue_1 $end
   $var wire 32 0 mem_0 $end
   $var wire 32 1 mem_1 $end
   $var wire 32 3 mem_2 $end
   $var wire 32 4 mem_3 $end
   $var wire 1 6 io_enq $end
   $var wire 1 8 isFull $end
   $var wire 32 : deqDateReg $end
   $var wire 1 B reset $end
   $var wire 32 J io_deqData $end
   $var wire 1 Q io_deq $end
   $var wire 3 W writePtr $end
   $var wire 1 X isEmpty $end
   $var wire 1 Z clock $end
   $var wire 3 b readPtr $end
   $var wire 32 f io_enqData $end
  $upscope $end
  $scope module data_queue_2 $end
   $var wire 32 - deqDateReg $end
   $var wire 1 . isEmpty $end
   $var wire 1 2 io_deq $end
   $var wire 32 C io_enqData $end
   $var wire 1 I clock $end
   $var wire 1 L io_enq $end
   $var wire 3 P readPtr $end
   $var wire 32 R mem_3 $end
   $var wire 32 S mem_1 $end
   $var wire 32 T mem_2 $end
   $var wire 32 Y mem_0 $end
   $var wire 3 ] writePtr $end
   $var wire 1 ^ isFull $end
   $var wire 32 _ io_deqData $end
   $var wire 1 g reset $end
  $upscope $end
  $scope module data_queue_0 $end
   $var wire 32 " mem_3 $end
   $var wire 32 # mem_0 $end
   $var wire 32 $ mem_2 $end
   $var wire 32 % mem_1 $end
   $var wire 1 5 clock $end
   $var wire 32 ; io_enqData $end
   $var wire 3 ? readPtr $end
   $var wire 1 @ io_deq $end
   $var wire 3 A writePtr $end
   $var wire 32 H io_deqData $end
   $var wire 1 M io_enq $end
   $var wire 1 V reset $end
   $var wire 1 \ isFull $end
   $var wire 1 h isEmpty $end
   $var wire 32 q deqDateReg $end
  $upscope $end
  $scope module data_queue_3 $end
   $var wire 3 ! readPtr $end
   $var wire 32 ' io_deqData $end
   $var wire 32 ( deqDateReg $end
   $var wire 1 9 isFull $end
   $var wire 3 < writePtr $end
   $var wire 1 > io_deq $end
   $var wire 32 D mem_0 $end
   $var wire 32 E mem_1 $end
   $var wire 32 F mem_2 $end
   $var wire 32 G mem_3 $end
   $var wire 1 n reset $end
   $var wire 32 o io_enqData $end
   $var wire 1 p clock $end
   $var wire 1 r isEmpty $end
   $var wire 1 w io_enq $end
  $upscope $end
$upscope $end
$enddefinitions $end
$dumpvars
b00000000 k
02
b00000000 m
b00000000000000000000000000000000 -
b00000000 l
b00000000000000000000000000000000 '
05
06
b00000000 i
b00000000000000000000000000000000 (
08
b00000000 c
b00000000000000000000000000000000 #
09
b00000000000000000000000000000000 "
b00000000000000000000000000000000 %
b00000000 d
b00000000000000000000000000000000 $
0=
0>
b00000000 a
b00000000 `
0@
b00000000000000000000000000000000 ;
b000 v
b00000000000000000000000000000000 :
0B
b00 &
b000 s
b000 u
b000 t
b00000000000000000000000000000000 3
0I
0K
b00000000000000000000000000000000 4
0L
0M
0N
b00000000000000000000000000000000 1
b00000000000000000000000000000000 0
0Q
b000 b
0U
0V
0X
0Z
0[
0\
0^
b000 W
0e
0g
0h
0j
b000 ]
0n
0p
0r
b00000000000000000000000000000000 f
0w
b000 O
b000 P
b00000000000000000000000000000000 _
b000 7
b000 ?
b000 A
b00000000000000000000000000000000 o
b00000000000000000000000000000000 q
b000 <
b00000000000000000000000000000000 J
b00000000000000000000000000000000 G
b00000000000000000000000000000000 F
b00000000000000000000000000000000 H
b00000000000000000000000000000000 C
b00000000000000000000000000000000 E
b00000000000000000000000000000000 D
b00000000000000000000000000000000 Y
b00000000000000000000000000000000 S
0)
b00000000000000000000000000000000 R
b000 !
0*
0+
b00000000000000000000000000000000 T
0,
0.
0/
$end
#0
1B
1V
1g
1K
1n
#1
1p
b100 s
b100 t
15
b100 u
b100 v
1I
1Z
1j
#6
0p
0B
05
0V
0g
0I
0Z
0j
0K
0n
#11
1p
1r
15
1X
1h
1I
1Z
1j
1.
#16
0p
05
0I
0Z
0j
#21
1p
15
1I
1Z
1j
#26
0p
05
0I
0Z
0j
#31
1p
15
1I
1Z
1j
#36
0p
05
0I
0Z
0j
#41
1p
15
1I
1Z
1j
#46
0p
05
0I
0Z
0j
#51
1p
15
1I
1Z
1j
#56
0p
05
0I
0Z
0j
#61
1p
15
1I
1Z
1j
#66
0p
05
0I
0Z
0j
#71
1p
15
1I
1Z
1j
#76
0p
05
0I
0Z
0j
#81
1p
15
1I
1Z
1j
#86
0p
05
0I
0Z
0j
#91
1p
15
1I
1Z
1j
#96
0p
05
0I
0Z
0j
#101
1p
15
1I
1Z
1j
#106
b00000000000000000000000000001001 C
b00000000000000000000000000000101 f
0I
b00000101 i
0j
b00000001 k
1L
b00001101 l
1M
b00001001 m
1/
b00000000000000000000000000001101 o
0p
05
16
1w
0Z
b00000000000000000000000000000001 ;
#111
b001 A
b00000000000000000000000000000001 #
b00000000000000000000000000001101 D
b01 &
1I
1j
b001 O
b00000000000000000000000000000101 0
1p
15
b001 W
b00000000000000000000000000001001 Y
1Z
b001 <
b001 ]
#116
b00000000000000000000000000001010 C
b00000000000000000000000000000110 f
0I
b00000110 i
0j
b00000010 k
b00001110 l
b00001010 m
0/
b00000000000000000000000000001110 o
0p
05
0Z
b00000000000000000000000000000010 ;
#121
b010 A
b00000000000000000000000000000010 %
b00000000000000000000000000001110 E
0h
1I
1j
0.
b010 O
1p
b00000000000000000000000000000110 1
0r
b00000000000000000000000000001010 S
15
b010 W
0X
1Z
b010 <
b010 ]
#126
b00000000000000000000000000001011 C
b00000000000000000000000000000111 f
0I
b00000111 i
0j
b00000011 k
b00001111 l
b00001011 m
b00000000000000000000000000001111 o
0p
05
0Z
b00000000000000000000000000000011 ;
#131
b011 A
b00000000000000000000000000000011 $
1e
b00000000000000000000000000001111 F
1I
1j
b011 O
1p
b00000000000000000000000000000111 3
b00000000000000000000000000001011 T
15
1U
b011 W
1Z
b011 <
b011 ]
#136
b00000000000000000000000000001100 C
b00000000000000000000000000001000 f
0I
b00001000 i
0j
b00000100 k
b00010000 l
b00001100 m
b00000000000000000000000000010000 o
0p
05
0Z
b00000000000000000000000000000100 ;
#141
b100 A
b00000000000000000000000000000100 "
0e
b00 &
b00000000000000000000000000010000 G
1I
1j
0L
0M
b000 O
1p
b00000000000000000000000000001100 R
b00000000000000000000000000001000 4
15
0U
06
b100 W
0w
1Z
b100 <
b100 ]
#146
0p
05
0I
0Z
0j
#151
1p
15
18
19
1I
1Z
1j
1\
1^
#156
0p
05
0I
0Z
0j
#161
1p
15
1I
1Z
1j
#166
0p
05
0I
0Z
0j
#171
1p
15
1I
1Z
1j
#176
0p
05
0I
0Z
0j
#181
1p
15
1I
1Z
1j
#186
0p
05
0I
0Z
0j
1[
#191
1@
1p
1Q
12
15
b10 &
1I
1Z
1j
1>
#196
0p
05
0I
0Z
0j
0[
#201
b00000000000000000000000000000001 H
1I
b00000000000000000000000000000101 J
b001 P
1Z
b00000000000000000000000000001001 _
b00001001 `
b001 !
b00000101 a
b001 b
b00001101 c
b00000001 d
b00000000000000000000000000001101 '
b00000000000000000000000000001101 (
1j
b00000000000000000000000000001001 -
1p
b00000000000000000000000000000001 q
b011 s
b011 t
15
b011 u
b011 v
b001 7
b00000000000000000000000000000101 :
b001 ?
#206
0p
05
0I
0Z
0j
#211
b00000000000000000000000000000010 H
1I
b00000000000000000000000000000110 J
b010 P
1Z
0\
0^
b00000000000000000000000000001010 _
b00001010 `
b010 !
b00000110 a
b010 b
b00001110 c
b00000010 d
b00000000000000000000000000001110 '
b00000000000000000000000000001110 (
1j
b00000000000000000000000000001010 -
1p
b00000000000000000000000000000010 q
b010 s
b010 t
15
b010 u
b010 v
b010 7
08
09
b00000000000000000000000000000110 :
b010 ?
#216
0p
05
0I
0Z
0j
#221
b00000000000000000000000000000011 H
1I
b00000000000000000000000000000111 J
b011 P
1Z
b00000000000000000000000000001011 _
b00001011 `
b011 !
b00000111 a
b011 b
b00001111 c
b00000011 d
b00000000000000000000000000001111 '
b00000000000000000000000000001111 (
1j
b00000000000000000000000000001011 -
1p
b00000000000000000000000000000011 q
b001 s
b001 t
15
b001 u
b001 v
b011 7
b00000000000000000000000000000111 :
b011 ?
#226
0p
05
0I
0Z
0j
#231
0@
b00000000000000000000000000000100 H
1I
b00000000000000000000000000001000 J
1N
b100 P
0Q
1Z
b00000000000000000000000000001100 _
b00001100 `
b100 !
b00001000 a
b100 b
b00010000 c
b00000100 d
b00000000000000000000000000010000 '
b00000000000000000000000000010000 (
1j
b00000000000000000000000000001100 -
1p
b00000000000000000000000000000100 q
02
b000 s
b000 t
15
b000 u
b000 v
b100 7
b00000000000000000000000000001000 :
1=
0>
b100 ?
#236
0p
05
0I
0Z
0j
#241
b00 &
1h
1I
1j
1.
0N
1p
1r
15
b000 7
1X
1Z
0=
#246
0p
05
0I
0Z
0j
#251
1p
b100 s
b100 t
15
b100 u
b100 v
1I
1Z
1j
#256
0p
05
0I
0Z
0j
#261
1p
15
1I
1Z
1j
#266
0p
05
0I
0Z
0j
#271
1p
15
1I
1Z
1j
#276
0p
05
0I
0Z
0j
#281
1p
15
1I
1Z
1j
#286
0p
05
0I
0Z
0j
#291
1p
15
1I
1Z
1j
#296
0p
05
0I
0Z
0j
#301
1p
15
1I
1Z
1j
#306
0p
05
0I
0Z
0j
#311
1p
15
1I
1Z
1j
#316
0p
05
0I
0Z
0j
#321
1p
15
1I
1Z
1j
#326
0p
05
0I
0Z
0j
#331
1p
15
1I
1Z
1j
#336
0p
05
0I
0Z
0j
#341
1p
15
1I
1Z
1j
#346
0p
05
0I
0Z
0j
#351
1p
15
1I
1Z
1j
#356
0p
05
0I
0Z
0j
#361
1p
15
1I
1Z
1j
#366
0p
05
0I
0Z
0j
#371
1p
15
1I
1Z
1j
#376
0p
05
0I
0Z
0j
#381
1p
15
1I
1Z
1j
#386
0p
05
0I
0Z
0j
#391
1p
15
1I
1Z
1j
#396
b00000000 i
0j
b00000000 k
b00000000 l
b00000000 m
