test_run_dir/test_2D_Regfile/Regfile_2D.vcd
$date
2023-12-22T13:17+0000
$end
$version
0.2
$end
$comment

$end
$timescale 1ns  $end
$scope module Regfile_2D $end
 $var wire 64 ! regfile2d_7_data_out $end
 $var wire 64 ' regfile2d_2_data_out $end
 $var wire 1 ( Reg_2D $end
 $var wire 1 ) regfile2d_4_wen $end
 $var wire 1 + Reg_2D_1 $end
 $var wire 1 / regfile2d_1_valid_out $end
 $var wire 1 0 Reg_2D_5 $end
 $var wire 1 2 Reg_2D_4 $end
 $var wire 1 3 Reg_2D_3 $end
 $var wire 1 4 Reg_2D_2 $end
 $var wire 1 5 Reg_2D_7 $end
 $var wire 1 6 Reg_2D_6 $end
 $var wire 3 7 regfile2d_5_wr_offset $end
 $var wire 1 8 regfile2d_5_valid_in $end
 $var wire 3 9 regfile2d_7_rd_offset $end
 $var wire 64 < regfile2d_4_data_in $end
 $var wire 64 = regfile2d_3_data_out $end
 $var wire 1 > regfile2d_3_valid_out $end
 $var wire 1 ? regfile2d_5_wen $end
 $var wire 64 C regfile2d_7_data_in $end
 $var wire 3 E regfile2d_2_rd_offset $end
 $var wire 1 I regfile2d_3_valid_in $end
 $var wire 1 J io_out_valid $end
 $var wire 64 K regfile2d_6_data_out $end
 $var wire 3 M regfile2d_4_rd_offset $end
 $var wire 64 N regfile2d_6_data_in $end
 $var wire 5 O io_rd_addr $end
 $var wire 3 Q regfile2d_1_wr_offset $end
 $var wire 3 R regfile2d_3_rd_offset $end
 $var wire 3 S regfile2d_3_wr_offset $end
 $var wire 64 T regfile2d_1_data_in $end
 $var wire 1 V regfile2d_7_valid_out $end
 $var wire 3 W regfile2d_6_rd_offset $end
 $var wire 3 X regfile2d_0_wr_offset $end
 $var wire 64 [ io_wr_0_data $end
 $var wire 1 ^ regfile2d_0_valid_in $end
 $var wire 1 _ regfile2d_5_valid_out $end
 $var wire 64 a regfile2d_0_data_in $end
 $var wire 64 b io_out_bits_data $end
 $var wire 1 f regfile2d_2_wen $end
 $var wire 1 g regfile2d_6_valid_out $end
 $var wire 1 h clock $end
 $var wire 5 k io_wr_0_addr $end
 $var wire 1 o regfile2d_3_wen $end
 $var wire 3 p regfile2d_2_wr_offset $end
 $var wire 3 q regfile2d_5_rd_offset $end
 $var wire 1 s io_rd_ren $end
 $var wire 1 t regfile2d_2_valid_out $end
 $var wire 1 u regfile2d_0_valid_out $end
 $var wire 3 w io_wr_0_offset $end
 $var wire 64 x regfile2d_2_data_in $end
 $var wire 1 z regfile2d_1_wen $end
 $var wire 3 { io_rd_offset $end
 $var wire 64 "! regfile2d_5_data_out $end
 $var wire 3 "% regfile2d_6_wr_offset $end
 $var wire 1 "( regfile2d_4_valid_out $end
 $var wire 64 "+ regfile2d_0_data_out $end
 $var wire 64 ", regfile2d_5_data_in $end
 $var wire 3 "- regfile2d_1_rd_offset $end
 $var wire 1 ". regfile2d_0_wen $end
 $var wire 1 "1 regfile2d_6_valid_in $end
 $var wire 3 "3 regfile2d_4_wr_offset $end
 $var wire 1 "< io_wr_1_wen $end
 $var wire 1 "= regfile2d_2_valid_in $end
 $var wire 1 "E reset $end
 $var wire 1 "H io_wr_0_wen $end
 $var wire 1 "J regfile2d_1_valid_in $end
 $var wire 1 "K io_out_ready $end
 $var wire 1 "N regfile2d_6_wen $end
 $var wire 3 "O io_wr_1_offset $end
 $var wire 5 "V io_wr_1_addr $end
 $var wire 64 "Z regfile2d_4_data_out $end
 $var wire 3 "[ regfile2d_0_rd_offset $end
 $var wire 3 "_ regfile2d_7_wr_offset $end
 $var wire 1 "` regfile2d_4_valid_in $end
 $var wire 64 "b io_wr_1_data $end
 $var wire 64 "d regfile2d_1_data_out $end
 $var wire 1 "e regfile2d_7_wen $end
 $var wire 1 "h regfile2d_7_valid_in $end
 $var wire 64 "i regfile2d_3_data_in $end
  $scope module Reg_2D $end
   $var wire 64 , data2d_0 $end
   $var wire 64 - data2d_1 $end
   $var wire 1 D io_valid_in $end
   $var wire 3 H io_wr_offset $end
   $var wire 64 c io_data_in $end
   $var wire 1 r io_valid_out $end
   $var wire 1 y reset $end
   $var wire 64 "# io_data_out $end
   $var wire 1 "S clock $end
   $var wire 1 "U io_wen $end
   $var wire 3 "g io_rd_offset $end
  $upscope $end
  $scope module Reg_2D_1 $end
   $var wire 1 @ io_valid_out $end
   $var wire 64 F data2d_0 $end
   $var wire 64 G data2d_1 $end
   $var wire 1 l io_wen $end
   $var wire 3 "$ io_wr_offset $end
   $var wire 1 "0 clock $end
   $var wire 3 "9 io_rd_offset $end
   $var wire 64 "; io_data_in $end
   $var wire 1 "F reset $end
   $var wire 1 "P io_valid_in $end
   $var wire 64 "Y io_data_out $end
  $upscope $end
  $scope module Reg_2D_5 $end
   $var wire 1 " clock $end
   $var wire 64 # data2d_0 $end
   $var wire 64 $ data2d_1 $end
   $var wire 1 & io_valid_out $end
   $var wire 1 A io_wen $end
   $var wire 3 "8 io_rd_offset $end
   $var wire 64 "B io_data_in $end
   $var wire 3 "L io_wr_offset $end
   $var wire 1 "R io_valid_in $end
   $var wire 64 "\ io_data_out $end
   $var wire 1 "c reset $end
  $upscope $end
  $scope module Reg_2D_4 $end
   $var wire 1 % io_valid_out $end
   $var wire 64 : data2d_1 $end
   $var wire 64 ; data2d_0 $end
   $var wire 64 P io_data_in $end
   $var wire 1 \ io_valid_in $end
   $var wire 1 ] clock $end
   $var wire 1 v reset $end
   $var wire 64 "6 io_data_out $end
   $var wire 3 "7 io_rd_offset $end
   $var wire 1 "I io_wen $end
   $var wire 3 "f io_wr_offset $end
  $upscope $end
  $scope module Reg_2D_3 $end
   $var wire 1 . reset $end
   $var wire 1 Y io_valid_in $end
   $var wire 1 Z clock $end
   $var wire 64 e io_data_out $end
   $var wire 1 j io_valid_out $end
   $var wire 3 | io_rd_offset $end
   $var wire 1 ~ io_wen $end
   $var wire 64 "/ io_data_in $end
   $var wire 3 "M io_wr_offset $end
   $var wire 64 "W data2d_1 $end
   $var wire 64 "X data2d_0 $end
  $upscope $end
  $scope module Reg_2D_2 $end
   $var wire 1 U clock $end
   $var wire 1 i io_valid_out $end
   $var wire 3 } io_rd_offset $end
   $var wire 64 "& data2d_0 $end
   $var wire 64 "' data2d_1 $end
   $var wire 3 "2 io_wr_offset $end
   $var wire 64 "5 io_data_out $end
   $var wire 1 ": io_wen $end
   $var wire 1 "G reset $end
   $var wire 1 "Q io_valid_in $end
   $var wire 64 "a io_data_in $end
  $upscope $end
  $scope module Reg_2D_7 $end
   $var wire 3 * io_wr_offset $end
   $var wire 64 1 io_data_in $end
   $var wire 1 L io_valid_in $end
   $var wire 1 ` clock $end
   $var wire 64 d io_data_out $end
   $var wire 1 "" io_wen $end
   $var wire 64 ") data2d_1 $end
   $var wire 64 "* data2d_0 $end
   $var wire 1 "> reset $end
   $var wire 3 "C io_rd_offset $end
   $var wire 1 "] io_valid_out $end
  $upscope $end
  $scope module Reg_2D_6 $end
   $var wire 3 B io_wr_offset $end
   $var wire 1 m clock $end
   $var wire 1 n io_wen $end
   $var wire 64 "4 io_data_out $end
   $var wire 64 "? data2d_1 $end
   $var wire 1 "@ io_valid_in $end
   $var wire 64 "A data2d_0 $end
   $var wire 3 "D io_rd_offset $end
   $var wire 64 "T io_data_in $end
   $var wire 1 "^ io_valid_out $end
   $var wire 1 "j reset $end
  $upscope $end
$upscope $end
$enddefinitions $end
$dumpvars
00
b0000000000000000000000000000000000000000000000000000000000000000 "/
02
b0000000000000000000000000000000000000000000000000000000000000000 ",
03
04
05
06
08
b0000000000000000000000000000000000000000000000000000000000000000 "&
b0000000000000000000000000000000000000000000000000000000000000000 "'
b0000000000000000000000000000000000000000000000000000000000000000 "*
b0000000000000000000000000000000000000000000000000000000000000000 "+
0>
0?
b0000000000000000000000000000000000000000000000000000000000000000 ")
0@
0A
b0000000000000000000000000000000000000000000000000000000000000000 "?
0D
b0000000000000000000000000000000000000000000000000000000000000000 "B
b0000000000000000000000000000000000000000000000000000000000000000 "A
b0000000000000000000000000000000000000000000000000000000000000000 "6
0I
0J
b0000000000000000000000000000000000000000000000000000000000000000 "4
b0000000000000000000000000000000000000000000000000000000000000000 "5
0L
b0000000000000000000000000000000000000000000000000000000000000000 ";
0U
0V
0Y
0Z
0\
0]
0^
0_
0`
b0000000000000000000000000000000000000000000000000000000000000000 "\
b0000000000000000000000000000000000000000000000000000000000000000 "b
0f
0g
b0000000000000000000000000000000000000000000000000000000000000000 "a
0h
0i
b0000000000000000000000000000000000000000000000000000000000000000 "W
0j
b0000000000000000000000000000000000000000000000000000000000000000 "T
0l
b0000000000000000000000000000000000000000000000000000000000000000 "Z
0m
0n
b0000000000000000000000000000000000000000000000000000000000000000 "X
0o
b0000000000000000000000000000000000000000000000000000000000000000 "Y
b0000000000000000000000000000000000000000000000000000000000000000 x
0r
0s
0t
0u
0v
0y
0z
0~
b0000000000000000000000000000000000000000000000000000000000000000 a
b0000000000000000000000000000000000000000000000000000000000000000 d
b0000000000000000000000000000000000000000000000000000000000000000 e
b0000000000000000000000000000000000000000000000000000000000000000 b
b0000000000000000000000000000000000000000000000000000000000000000 c
b0000000000000000000000000000000000000000000000000000000000000000 [
b0000000000000000000000000000000000000000000000000000000000000000 P
b0000000000000000000000000000000000000000000000000000000000000000 N
b0000000000000000000000000000000000000000000000000000000000000000 T
0""
b0000000000000000000000000000000000000000000000000000000000000000 F
b0000000000000000000000000000000000000000000000000000000000000000 G
b0000000000000000000000000000000000000000000000000000000000000000 "#
0"(
b0000000000000000000000000000000000000000000000000000000000000000 "!
b0000000000000000000000000000000000000000000000000000000000000000 K
0".
0"0
0"1
b0000000000000000000000000000000000000000000000000000000000000000 C
b0000000000000000000000000000000000000000000000000000000000000000 <
b0000000000000000000000000000000000000000000000000000000000000000 =
b0000000000000000000000000000000000000000000000000000000000000000 :
b0000000000000000000000000000000000000000000000000000000000000000 ;
0":
b000 "_
b0000000000000000000000000000000000000000000000000000000000000000 1
0"<
0"=
0">
b000 "[
0"@
b000 "f
b000 w
b000 "g
0"E
b0000000000000000000000000000000000000000000000000000000000000000 '
0"F
b0000000000000000000000000000000000000000000000000000000000000000 ,
0"G
b0000000000000000000000000000000000000000000000000000000000000000 -
0"H
0"I
0"J
0"K
b0000000000000000000000000000000000000000000000000000000000000000 !
b000 {
0"N
b0000000000000000000000000000000000000000000000000000000000000000 $
b000 }
0"P
b000 |
0"Q
b0000000000000000000000000000000000000000000000000000000000000000 #
0"R
0"S
0"U
b000 q
b000 p
0"]
0"^
0"`
b000 W
0"c
b000 X
0"e
b000 S
b000 R
0"h
0"j
b00000 O
b000 H
b000 B
b000 E
b000 Q
b0000000000000000000000000000000000000000000000000000000000000000 "d
b000 M
b0000000000000000000000000000000000000000000000000000000000000000 "i
b000 7
b000 "$
b000 9
b000 "%
b00000 k
b000 "-
b000 "7
b000 "2
b000 "3
b000 *
b000 "8
b000 "9
b000 "D
0"
b000 "C
0%
0&
0(
b000 "O
0)
b000 "L
b000 "M
0+
0.
0/
b00000 "V
$end
#0
1"c
1"E
1"F
1"G
1v
1"j
1y
1">
1.
#1
1`
1"S
1"
1U
1h
1Z
1]
1m
1"0
#6
0"c
0"j
0"0
0U
1":
0Z
b0000000000000000000000000000000000000000000000000000000000000010 [
1"=
0">
0]
0`
0"
0"E
0"F
0"G
1f
1"H
0h
1"K
b00010 k
0m
0.
1"Q
0"S
0v
b0000000000000000000000000000000000000000000000000000000000000010 x
0y
b0000000000000000000000000000000000000000000000000000000000000010 "a
#11
1`
1"
b0000000000000000000000000000000000000000000000000000000000000010 "&
b0000000000000000000000000000000000000000000000000000000000000010 '
1h
1m
1"0
1"S
b0000000000000000000000000000000000000000000000000000000000000010 "5
1U
1Z
1]
#16
b0000000000000000000000000000000000000000000000000000000000000100 "b
b0000000000000000000000000000000000000000000000000000000000000100 "i
1I
b0000000000000000000000000000000000000000000000000000000000000100 "/
0"0
b001 "2
0U
1Y
0Z
1"<
b0000000000000000000000000000000000000000000000000000000000000011 [
0]
0`
0"
0h
0m
1o
b001 p
0"S
b00011 "V
b001 w
b0000000000000000000000000000000000000000000000000000000000000011 x
1~
b0000000000000000000000000000000000000000000000000000000000000011 "a
#21
1`
1"
b0000000000000000000000000000000000000000000000000000000000000100 e
b0000000000000000000000000000000000000000000000000000000000000011 "'
1h
1m
1"0
1"S
1U
b0000000000000000000000000000000000000000000000000000000000000100 "X
1Z
b0000000000000000000000000000000000000000000000000000000000000100 =
1]
#26
0D
1J
0"0
b00011 O
b001 S
0U
0":
0Z
0"<
0"=
0]
0^
0`
0"
b0000000000000000000000000000000000000000000000000000000000000100 b
0f
0"H
0h
1j
b001 "M
0m
b001 "O
0o
0"Q
0"S
0r
1s
0u
1>
0~
#31
1`
1"S
1"
1U
1h
1Z
1]
1m
1"0
#36
b0000000000000000000000000000000000000000000000000000000000000000 "b
b0000000000000000000000000000000000000000000000000000000000000000 "i
b000 H
0I
0J
b0000000000000000000000000000000000000000000000000000000000000000 "/
0"0
b00000 O
b000 "2
b000 S
0U
b000 X
0Y
0Z
b0000000000000000000000000000000000000000000000000000000000000000 [
0]
0`
b0000000000000000000000000000000000000000000000000000000000000000 a
0"
b0000000000000000000000000000000000000000000000000000000000000000 b
b0000000000000000000000000000000000000000000000000000000000000000 c
0h
0j
b00000 k
b000 "M
0m
b000 "O
b000 p
0"S
0s
b00000 "V
b000 w
b0000000000000000000000000000000000000000000000000000000000000000 x
0>
b0000000000000000000000000000000000000000000000000000000000000000 "a
#41
1`
1"S
1"
1U
1h
1Z
1]
1m
1"0
#46
0h
0"K
